CMSC320 Final Project
…
most_expensive <- city_prices %>%
  filter(year == 2018) %>%
  arrange(desc(avg_price))

least_expensive <- city_prices %>%
  filter(year == 2018) %>%
  arrange(avg_price)

most_expensive

## # A tibble: 54 x 3
##    region               year avg_price
##    <chr>               <dbl>     <dbl>
##  1 HartfordSpringfield  2018      1.68
##  2 Boston               2018      1.58
##  3 NewYork              2018      1.57
##  4 Chicago              2018      1.56
##  5 SanFrancisco         2018      1.55
##  6 RaleighGreensboro    2018      1.54
##  7 Boise                2018      1.49
##  8 Charlotte            2018      1.48
##  9 SanDiego             2018      1.48
## 10 Northeast            2018      1.47
## # ... with 44 more rows

least_expensive

## # A tibble: 54 x 3
##    region            year avg_price
##    <chr>            <dbl>     <dbl>
##  1 Houston           2018      1.04
##  2 DallasFtWorth     2018      1.10
##  3 SouthCentral      2018      1.10
##  4 PhoenixTucson     2018      1.16
##  5 Indianapolis      2018      1.17
##  6 Columbus          2018      1.17
##  7 Detroit           2018      1.18
##  8 NewOrleansMobile  2018      1.20
##  9 Nashville         2018      1.22
## 10 BuffaloRochester  2018      1.23
## # ... with 44 more rows
…
We now have a tidy dataframe that has the affordability of each region for each quarter from 2015 onwards.

Since we care about the price of avocados compared to the affordability of houses in specific regions within the US, we need to see if the regions of our two datasets match up. One way of identifying the common regions is by looking at the the regions of each dataset manually and checking how many match. What we decided to do was count the number of capital letters in each region and check the regions by matching capital letters. Since regions that only contain one capital letter will always be the same if they are the same region regardless, we do not need to focus on them too much for now. Instead, we will be looking at regions where there are more than one capital letter, indicating that it may be multiple regions that are joined.

avocado_tab %>%
  filter(year < 2018) %>%
  group_by(region) %>%
  filter(capital_count > 1) %>%
  summarise()

## # A tibble: 24 x 1
##    region             
##    <chr>              
##  1 BaltimoreWashington
##  2 BuffaloRochester   
##  3 CincinnatiDayton   
##  4 DallasFtWorth      
##  5 GrandRapids        
##  6 GreatLakes         
##  7 HarrisburgScranton 
##  8 HartfordSpringfield
##  9 LasVegas           
## 10 LosAngeles         
## # ... with 14 more rows

afford_tab %>%
  group_by(region) %>%
  filter(capital_count > 1) %>%
  summarise()

## # A tibble: 24 x 1
##    region                        
##    <chr>                         
##  1 Baton Rouge                   
##  2 Dallas-Fort Worth             
##  3 Des Moines                    
##  4 Fort Collins                  
##  5 Fort Wayne                    
##  6 Kansas City                   
##  7 Las Vegas                     
##  8 Little Rock                   
##  9 Los Angeles-Long Beach-Anaheim
## 10 Louisville-Jefferson County   
## # ... with 14 more rows
…
